Introducción a la manipulación y análisis descriptivo de datos en R
…
```r
proc_elsoc <- elsoc_2022 %>% 
  dplyr::select(edad = m0_edad,
                sexo = m0_sexo,
                ingreso = m13,
                altruismo = c03,
                confianza_carab = c05_03)

proc_elsoc
```

```
## # A tibble: 1,000 × 5
##     edad sexo   ingreso altruismo confianza_carab
##    <dbl> <chr>    <dbl>     <dbl>           <dbl>
##  1    66 Hombre 1200000         2               3
##  2    38 Hombre  500000         2               3
##  3    70 Mujer       NA         1               3
##  4    24 Mujer       NA         2               5
##  5    56 Mujer   500000         2               3
##  6    52 Mujer       NA         2               1
##  7    64 Mujer       NA         2               5
##  8    24 Mujer   530000         2               3
##  9    32 Mujer   790000         2               3
## 10    60 Mujer   400000         2               4
## # … with 990 more rows
```
…
---
.box-inv-4.mlarge.sp-after[
.bold[APLIQUEMOS CONOCIMIENTOS]] 

```r
proc_elsoc <- proc_elsoc %>% dplyr::filter(edad >= 25)

proc_elsoc
```

```
## # A tibble: 980 × 5
##     edad sexo   ingreso altruismo confianza_carab
##    <dbl> <chr>    <dbl>     <dbl>           <dbl>
##  1    66 Hombre 1200000         2               3
##  2    38 Hombre  500000         2               3
##  3    70 Mujer       NA         1               3
##  4    56 Mujer   500000         2               3
##  5    52 Mujer       NA         2               1
##  6    64 Mujer       NA         2               5
##  7    32 Mujer   790000         2               3
##  8    60 Mujer   400000         2               4
##  9    43 Hombre 1000000         2               4
## 10    77 Mujer       NA         2               5
## # … with 970 more rows
```
…
.box-inv-4.mlarge.sp-after[
.bold[APLIQUEMOS CONOCIMIENTOS]] 

```r
proc_elsoc <- proc_elsoc %>% 
  dplyr::mutate(sexo = car::recode(sexo,
                                   recodes = c("'Hombre' = 'Masculino'; 'Mujer' = 'Femenino'")),
                ingreso = car::recode(ingreso, 
                                      recodes = c("-888 = NA; -999 = NA")))

proc_elsoc
```

```
## # A tibble: 980 × 5
##     edad sexo      ingreso altruismo confianza_carab
##    <dbl> <chr>       <dbl>     <dbl>           <dbl>
##  1    66 Masculino 1200000         2               3
##  2    38 Masculino  500000         2               3
##  3    70 Femenino       NA         1               3
##  4    56 Femenino   500000         2               3
##  5    52 Femenino       NA         2               1
##  6    64 Femenino       NA         2               5
##  7    32 Femenino   790000         2               3
##  8    60 Femenino   400000         2               4
##  9    43 Masculino 1000000         2               4
## 10    77 Femenino       NA         2               5
## # … with 970 more rows
```
…
---
# 5. Transformar variables

#### Transformar variables con `if_else()`

```r
proc_elsoc <- proc_elsoc %>%
  dplyr::mutate(ingreso_minimo = if_else(ingreso < 410000, "debajo minimo", "sobre minimo"))

select(proc_elsoc, ingreso, ingreso_minimo) #veamosla!
```

```
## # A tibble: 528 × 2
##    ingreso ingreso_minimo
##      <dbl> <chr>         
##  1 1200000 sobre minimo  
##  2  500000 sobre minimo  
##  3  500000 sobre minimo  
##  4  790000 sobre minimo  
##  5  400000 debajo minimo 
##  6 1000000 sobre minimo  
##  7 1200000 sobre minimo  
##  8  150000 debajo minimo 
##  9  350000 debajo minimo 
## 10  200000 debajo minimo 
## # … with 518 more rows
```
…
